an R interface for the SWAP model • rswap
…
autoset_output can be enabled, such that the output of the SWAP model matches your provided observed data

timeout sets the max allowed runtime of SWAP

How to access the data?

To read the output of your executed SWAP run, you can use the following command:

modelled_data <- read_swap_output(project_path)

read_swap_output() returns two dataframes, daily_output which contains depth wise values of various variables.

> modelled_data$daily_output
# A tibble: 17,520 x 5
   DATE       DEPTH     H    WC  TEMP
   <chr>      <dbl> <dbl> <dbl> <dbl>
 1 2013-01-01  -0.5 -687. 0.118     0
 2 2013-01-01  -1.5 -684. 0.118     0
 3 2013-01-01  -2.5 -680. 0.118     0
# i 17,517 more rows
# i Use `print(n = ...)` to see more rows

The other is custom_depth which contains custom variables at custom depths either explicitly altered by the user, or automatically parsed by the autoset_output flag of run_swap(). This dataframe is used widely throughout the package. (more/all results will be added over time)

> modelled_data$custom_depth
# A tibble: 730 x 14
   DATE        RAIN  SNOW DRAINAGE    DSTOR  H_10  H_20  H_30 WC_15 WC_40 WC_70 TEMP_15 TEMP_40 TEMP_70
   <date>     <dbl> <dbl>    <dbl>    <dbl> <dbl> <dbl> <dbl> <dbl> <dbl> <dbl>   <dbl>   <dbl>   <dbl>
 1 2013-01-01   0       0        0 -0.0266  -648. -603. -550. 0.122 0.111 0.111       0       0       0
 2 2013-01-02   0       0        0 -0.027   -624. -597. -564. 0.124 0.107 0.111       0       0       0
 3 2013-01-03   0       0        0 -0.0305  -618. -595. -568. 0.124 0.104 0.111       0       0       0
# i 727 more rows
# i Use `print(n = ...)` to see more rows
…
